<svg width="597" height="597" viewBox="0 0 597 598" fill="none" xmlns="http://www.w3.org/2000/svg">
<path d="M298.5 597.225C463.357 597.225 597 520.068 597 424.89C597 329.712 463.357 252.554 298.5 252.554C133.643 252.554 0 329.712 0 424.89C0 520.068 133.643 597.225 298.5 597.225Z" fill="#F5F5F5"/>
<path d="M349.592 519.646C379.904 519.646 404.477 505.459 404.477 487.959C404.477 470.459 379.904 456.272 349.592 456.272C319.28 456.272 294.707 470.459 294.707 487.959C294.707 505.459 319.28 519.646 349.592 519.646Z" fill="#E0E0E0"/>
<path d="M492.376 500.878C522.688 500.878 547.261 486.691 547.261 469.191C547.261 451.691 522.688 437.504 492.376 437.504C462.063 437.504 437.49 451.691 437.49 469.191C437.49 486.691 462.063 500.878 492.376 500.878Z" fill="#E0E0E0"/>
<path d="M192.165 567.157C222.477 567.157 247.05 552.97 247.05 535.469C247.05 517.969 222.477 503.782 192.165 503.782C161.853 503.782 137.28 517.969 137.28 535.469C137.28 552.97 161.853 567.157 192.165 567.157Z" fill="#E0E0E0"/>
<path d="M102.21 431.27C102.21 431.27 100.778 397.766 86.7315 379.117C72.6852 360.468 55.4689 357.789 46.9403 363.041C40.7063 366.861 41.542 378.215 52.3254 385.589C63.1088 392.964 83.893 411.865 87.1426 424.187L102.21 431.27Z" fill="#37474F"/>
<path d="M92.9256 426.389C92.6981 426.372 92.4862 426.266 92.335 426.095C92.1839 425.925 92.1055 425.701 92.1165 425.473C93.5623 395.073 66.9154 376.119 59.6602 372.71C59.452 372.612 59.2907 372.436 59.2113 372.22C59.1319 372.005 59.1406 371.766 59.2357 371.556C59.3363 371.347 59.5148 371.186 59.7329 371.106C59.951 371.027 60.1915 371.036 60.403 371.132C67.8439 374.66 95.3396 394.198 93.8541 425.513C93.8404 425.743 93.7366 425.958 93.5653 426.112C93.394 426.266 93.1689 426.346 92.9389 426.336L92.9256 426.389Z" fill="white"/>
<path d="M95.5784 420.685C93.6634 420.659 91.8221 419.943 90.3923 418.669C88.7608 416.879 88.8935 414.133 88.1374 411.825C86.9039 408.032 83.1635 405.459 79.264 404.65C75.3101 404.033 71.2684 404.305 67.4328 405.445C59.6072 407.369 52.0866 402.554 44.2478 403.124C41.4194 403.215 38.6687 404.072 36.2896 405.605C35.1161 406.381 34.1547 407.437 33.4923 408.679C32.83 409.92 32.4876 411.307 32.4961 412.714C32.765 415.043 33.9248 417.177 35.7325 418.669C37.5451 420.158 39.5423 421.406 41.6746 422.383L48.5585 425.898C49.7485 426.427 50.8458 427.143 51.8081 428.02C52.7176 428.995 53.4035 430.156 53.8182 431.423C54.2328 432.689 54.3661 434.031 54.2088 435.355C53.6783 438.008 51.5561 440.024 50.8796 442.624C50.044 446.032 52.1264 449.68 55.124 451.523C58.2375 453.209 61.7917 453.903 65.3106 453.513C68.8255 453.314 72.3005 452.611 75.8154 452.545C78.1935 452.375 80.5702 452.895 82.6595 454.044C85.019 455.752 86.719 458.22 87.4742 461.034C87.9298 462.838 88.6542 464.564 89.623 466.153C90.8175 467.663 92.426 468.793 94.252 469.403C97.7837 470.703 101.663 470.703 105.195 469.403C108.099 468.289 109.519 465.013 110.606 462.174C111.693 459.203 112.21 456.053 112.132 452.89C111.964 444.759 110.127 436.75 106.733 429.36C105.102 425.964 102.754 422.569 99.1463 421.402C97.9779 421.068 96.7848 420.829 95.5784 420.685Z" fill="#455A64"/>
<path d="M103.112 457.134C102.952 457.135 102.795 457.085 102.665 456.992C102.534 456.899 102.435 456.768 102.383 456.617C94.1989 433.153 55.4821 412.74 41.3695 410.393C41.2694 410.376 41.1735 410.34 41.0873 410.286C41.0011 410.233 40.9263 410.163 40.8672 410.08C40.808 409.998 40.7657 409.904 40.7427 409.805C40.7197 409.707 40.7163 409.604 40.7329 409.504C40.7494 409.404 40.7855 409.308 40.8391 409.222C40.8928 409.135 40.9628 409.061 41.0454 409.002C41.1279 408.942 41.2212 408.9 41.3201 408.877C41.419 408.854 41.5214 408.851 41.6215 408.867C56.0525 411.255 95.5386 432.119 103.961 456.099C103.997 456.196 104.012 456.299 104.007 456.401C104.002 456.504 103.977 456.605 103.932 456.698C103.888 456.79 103.825 456.873 103.748 456.941C103.671 457.01 103.581 457.061 103.484 457.094C103.364 457.135 103.237 457.149 103.112 457.134Z" fill="white"/>
<path d="M68.3082 444.268C68.16 444.256 68.0186 444.201 67.901 444.11C67.7834 444.019 67.6947 443.896 67.6456 443.756C67.5965 443.615 67.5891 443.464 67.6243 443.319C67.6595 443.175 67.7358 443.044 67.8439 442.942C74.1746 438.563 81.6611 436.158 89.3577 436.031C89.546 436.056 89.719 436.148 89.8442 436.291C89.9695 436.434 90.0386 436.617 90.0386 436.807C90.0386 436.997 89.9695 437.181 89.8442 437.323C89.719 437.466 89.546 437.559 89.3577 437.583C81.9957 437.761 74.8422 440.065 68.7591 444.215C68.6172 444.276 68.4605 444.295 68.3082 444.268Z" fill="white"/>
<path d="M103.537 475.279C102.703 474.712 102.013 473.957 101.525 473.074C101.036 472.192 100.762 471.207 100.725 470.199V193.796C100.782 192.757 101.084 191.746 101.605 190.845C102.125 189.944 102.851 189.179 103.722 188.61L428.896 0.862072C429.76 0.318259 430.756 0.0205509 431.777 0.00102625C432.798 -0.0184984 433.804 0.2409 434.689 0.751272C435.573 1.26164 436.301 2.00364 436.795 2.89731C437.289 3.79098 437.529 4.80244 437.491 5.82271V282.239C437.433 283.278 437.131 284.288 436.611 285.189C436.09 286.09 435.364 286.856 434.493 287.425L109.32 475.173C108.431 475.641 107.445 475.894 106.441 475.912C105.437 475.931 104.442 475.714 103.537 475.279Z" fill="#455A64"/>
<path d="M108.749 475.425H108.63C108.539 475.479 108.441 475.519 108.338 475.544H108.113C107.98 475.59 107.842 475.622 107.701 475.637C107.612 475.673 107.519 475.695 107.423 475.703L106.972 475.77C105.788 475.93 104.584 475.721 103.523 475.173C102.69 474.609 102.003 473.855 101.516 472.975C101.03 472.094 100.759 471.111 100.725 470.106V229.224L106.349 232.473V473.435C106.349 474.761 107.025 475.584 108.007 475.584C108.138 475.604 108.273 475.604 108.404 475.584C108.527 475.549 108.643 475.495 108.749 475.425Z" fill="#BA68C8"/>
<path opacity="0.81" d="M108.749 475.425H108.63C108.539 475.479 108.441 475.519 108.338 475.544H108.113C107.98 475.59 107.842 475.622 107.701 475.637C107.612 475.673 107.519 475.695 107.423 475.703L106.972 475.77C105.788 475.93 104.584 475.721 103.523 475.173C102.69 474.609 102.003 473.855 101.516 472.975C101.03 472.094 100.759 471.111 100.725 470.106V229.224L106.349 232.473V473.435C106.349 474.761 107.025 475.584 108.007 475.584C108.138 475.604 108.273 475.604 108.404 475.584C108.527 475.549 108.643 475.495 108.749 475.425Z" fill="#E0E0E0"/>
<path d="M106.335 232.473L100.711 229.224V282.743L106.335 286.019V232.473Z" fill="#BA68C8"/>
<path opacity="0.15" d="M106.335 232.473L100.711 229.224V282.743L106.335 286.019V232.473Z" fill="#6391BA"/>
<path d="M107.197 194.088C106.667 194.981 106.37 195.994 106.335 197.033V232.473L100.711 229.224V193.796C100.705 193.677 100.705 193.557 100.711 193.438C100.737 193.188 100.777 192.94 100.831 192.695C100.996 192.047 101.246 191.422 101.574 190.838L107.197 194.088Z" fill="#263238"/>
<path d="M437.49 5.83593V21.832L199.128 159.443C197.483 160.398 196.144 159.615 196.144 157.719V151.657C196.144 149.761 194.817 149.005 193.146 149.933L120.554 191.86C119.682 192.428 118.957 193.194 118.436 194.095C117.915 194.996 117.614 196.007 117.556 197.046V203.094C117.5 204.132 117.201 205.142 116.682 206.043C116.164 206.944 115.441 207.71 114.572 208.28L106.335 213.082V197.165C106.391 196.127 106.691 195.117 107.209 194.216C107.728 193.315 108.451 192.549 109.32 191.979L434.506 4.11164C436.151 3.15666 437.49 3.92595 437.49 5.83593Z" fill="#37474F"/>
<path d="M437.504 282.252C437.444 283.289 437.142 284.297 436.621 285.195C436.1 286.094 435.376 286.857 434.506 287.425L109.32 475.173C107.675 476.114 106.335 475.345 106.335 473.435V213.082L114.572 208.333C116.217 207.378 118.896 192.868 120.554 191.913L191.926 150.702C193.584 149.747 197.483 160.464 199.128 159.509L437.49 21.832V282.252H437.504Z" fill="#BA68C8"/>
<path opacity="0.9" d="M437.504 282.252C437.444 283.289 437.142 284.297 436.621 285.195C436.1 286.094 435.376 286.857 434.506 287.425L109.32 475.173C107.675 476.114 106.335 475.345 106.335 473.435V213.082L114.572 208.333C116.217 207.378 118.896 192.868 120.554 191.913L191.926 150.702C193.584 149.747 197.483 160.464 199.128 159.509L437.49 21.832V282.252H437.504Z" fill="white"/>
<g opacity="0.4">
<path d="M436.164 24.1267V282.252C436.1 283.048 435.856 283.819 435.452 284.508C435.048 285.197 434.493 285.786 433.83 286.231L108.656 474.019C108.456 474.154 108.222 474.232 107.98 474.244C107.675 474.244 107.662 473.581 107.662 473.435V213.785L115.235 209.408C116.402 208.731 117.145 206.41 118.816 200.441C119.423 197.87 120.258 195.358 121.31 192.934L192.098 152.068C192.946 153.223 193.708 154.438 194.38 155.703C196.303 159.072 197.364 160.823 198.903 160.823C199.213 160.822 199.518 160.744 199.791 160.597L436.164 24.1267ZM437.49 21.832L199.128 159.443C199.054 159.462 198.977 159.462 198.903 159.443C197.231 159.443 193.836 150.517 192.151 150.517C192.078 150.498 192 150.498 191.926 150.517L120.554 191.86C118.896 192.815 116.217 207.325 114.572 208.28L106.335 213.082V473.435C106.335 474.762 107.012 475.571 107.98 475.571C108.448 475.551 108.904 475.414 109.306 475.173L434.506 287.425C435.376 286.857 436.1 286.094 436.621 285.195C437.142 284.297 437.444 283.289 437.504 282.252V21.832H437.49Z" fill="#BA68C8"/>
</g>
<path d="M106.335 232.473V286.019L437.49 94.8488V41.2899L106.335 232.473Z" fill="#6391BA"/>
<path d="M437.49 21.832V41.2899L106.335 232.473V213.082L112.476 209.527C114.121 208.572 114.678 207.113 115.461 204.341L117.556 197.099C118.206 194.579 118.883 192.868 120.554 191.913L191.926 150.702C193.584 149.747 194.884 149.641 196.144 151.724L198.704 156.366C199.632 157.997 200.11 158.952 201.754 157.997L437.49 21.832Z" fill="#F0F0F0"/>
<path d="M423.458 15.8633C425.54 14.6696 427.224 15.6378 427.224 18.0385C427.154 19.3458 426.776 20.6179 426.121 21.7517C425.467 22.8855 424.554 23.8491 423.458 24.5643C421.388 25.758 419.704 24.7898 419.704 22.389C419.775 21.0835 420.152 19.8129 420.804 18.6795C421.456 17.5461 422.365 16.5815 423.458 15.8633Z" fill="#6391BA"/>
<path d="M409.929 23.6757C411.998 22.4819 413.682 23.4502 413.682 25.8509C413.611 27.1565 413.234 28.4271 412.582 29.5605C411.93 30.6939 411.021 31.6584 409.929 32.3767C407.846 33.5704 406.162 32.6021 406.162 30.2014C406.233 28.8942 406.611 27.6221 407.265 26.4883C407.919 25.3544 408.832 24.3909 409.929 23.6757Z" fill="#6391BA"/>
<path d="M396.36 31.488C398.429 30.2943 400.127 31.2626 400.127 33.6633C400.053 34.9698 399.673 36.2407 399.019 37.3741C398.365 38.5074 397.454 39.4715 396.36 40.189C394.277 41.396 392.593 40.4145 392.593 38.0138C392.664 36.7066 393.042 35.4344 393.696 34.3006C394.351 33.1668 395.263 32.2032 396.36 31.488Z" fill="#6391BA"/>
<path opacity="0.5" d="M120.05 214.408L115.355 217.061L117.145 213.625C117.216 213.495 117.253 213.349 117.253 213.201C117.253 213.053 117.216 212.907 117.145 212.777C117.013 212.617 116.774 212.777 116.615 213.029L114.068 217.936C114.062 217.998 114.062 218.06 114.068 218.122C114.062 218.206 114.062 218.29 114.068 218.374C114.06 218.449 114.06 218.524 114.068 218.599C114.061 218.634 114.061 218.67 114.068 218.705L116.615 220.668C116.652 220.692 116.696 220.704 116.741 220.704C116.785 220.704 116.829 220.692 116.867 220.668C116.988 220.569 117.084 220.442 117.145 220.297C117.278 219.979 117.265 219.621 117.145 219.501L115.355 218.175L120.05 215.522C120.173 215.427 120.272 215.304 120.338 215.163C120.405 215.023 120.438 214.869 120.435 214.713C120.435 214.408 120.262 214.302 120.05 214.408Z" fill="#455A64"/>
<path opacity="0.5" d="M123.976 212.153L128.671 209.5L126.881 208.174C126.722 208.055 126.708 207.697 126.881 207.378C127.053 207.06 127.252 206.887 127.411 207.007L129.958 208.97C129.991 208.994 130.019 209.026 130.038 209.063C130.052 209.133 130.052 209.205 130.038 209.275C130.051 209.358 130.051 209.444 130.038 209.527C130.038 209.527 130.038 209.527 130.038 209.593C130.017 209.657 129.99 209.72 129.958 209.779L127.411 214.633C127.356 214.752 127.269 214.853 127.159 214.925C127.122 214.962 127.072 214.982 127.02 214.982C126.968 214.982 126.918 214.962 126.881 214.925C126.806 214.796 126.767 214.65 126.767 214.501C126.767 214.352 126.806 214.205 126.881 214.076L128.671 210.628L123.976 213.347C123.764 213.466 123.605 213.347 123.605 212.976C123.596 212.819 123.626 212.662 123.69 212.519C123.755 212.376 123.853 212.251 123.976 212.153Z" fill="#455A64"/>
<path opacity="0.5" d="M139.349 198.624C139.349 198.346 139.07 198.385 138.951 198.69L138.301 200.269C137.2 200.149 135.873 201.211 134.972 203.121C133.818 205.574 133.818 208.426 134.972 209.607C135.255 209.872 135.622 210.03 136.009 210.054C136.396 210.078 136.78 209.967 137.094 209.739C138.032 209.11 138.765 208.22 139.203 207.179C139.276 207.055 139.315 206.913 139.315 206.768C139.315 206.623 139.276 206.481 139.203 206.357C139.044 206.211 138.805 206.357 138.659 206.662C137.797 208.492 136.377 209.315 135.515 208.479C134.653 207.643 134.64 205.468 135.515 203.625C136.125 202.298 137.014 201.542 137.797 201.502L137.306 202.683C137.187 202.988 137.306 203.28 137.492 203.147L139.415 201.9C139.488 201.834 139.546 201.752 139.582 201.66C139.619 201.568 139.634 201.468 139.627 201.37L139.349 198.624Z" fill="#455A64"/>
<path opacity="0.5" d="M189.87 159.523L191.581 155.888C191.682 155.718 191.734 155.523 191.734 155.325C191.734 155.127 191.682 154.932 191.581 154.761C191.382 154.575 191.051 154.761 190.852 155.186L189.141 158.807L187.416 157.162C187.217 156.963 186.886 157.162 186.687 157.586C186.587 157.757 186.534 157.952 186.534 158.15C186.534 158.348 186.587 158.543 186.687 158.714L188.398 160.358L186.687 164.006C186.587 164.177 186.534 164.371 186.534 164.57C186.534 164.768 186.587 164.962 186.687 165.133C186.739 165.176 186.805 165.2 186.873 165.2C186.94 165.2 187.006 165.176 187.058 165.133C187.223 165.031 187.349 164.877 187.416 164.696L189.141 161.061L190.852 162.719C190.902 162.761 190.965 162.784 191.031 162.784C191.096 162.784 191.16 162.761 191.21 162.719C191.375 162.614 191.505 162.462 191.581 162.282C191.682 162.111 191.734 161.916 191.734 161.718C191.734 161.52 191.682 161.325 191.581 161.154L189.87 159.523Z" fill="#455A64"/>
<path d="M145.622 203.081V197.033C145.684 195.995 145.988 194.986 146.511 194.087C147.034 193.189 147.761 192.426 148.633 191.86L417.688 36.6741C419.346 35.7192 420.685 36.4885 420.685 38.3984V44.3671C420.628 45.4061 420.326 46.4169 419.805 47.3179C419.285 48.2188 418.559 48.9846 417.688 49.5532L148.633 204.818C146.962 205.773 145.622 204.991 145.622 203.081Z" fill="white"/>
<path d="M413.589 49.9378C413.519 49.9517 413.447 49.9517 413.377 49.9378C413.237 49.8676 413.124 49.7524 413.057 49.6105C412.989 49.4687 412.971 49.3084 413.006 49.1553L413.298 46.6484L412.077 45.773C411.99 45.7094 411.921 45.6252 411.874 45.528C411.828 45.4307 411.807 45.3235 411.812 45.2159C411.813 45.0334 411.853 44.8533 411.931 44.6883C412.009 44.5233 412.122 44.3774 412.263 44.2609L414.014 42.9346C414.072 42.8816 414.114 42.8123 414.133 42.7356L414.916 40.1625C414.96 39.9748 415.057 39.8038 415.196 39.6698C415.335 39.5358 415.509 39.4444 415.698 39.4064C415.817 39.4024 415.933 39.4329 416.035 39.4941C416.136 39.5553 416.217 39.6447 416.269 39.7513L416.972 41.2633L418.563 40.6532C418.675 40.6053 418.799 40.5936 418.918 40.6198C419.037 40.6459 419.145 40.7086 419.226 40.7991C419.331 40.9588 419.386 41.1455 419.386 41.3363C419.386 41.5271 419.331 41.7138 419.226 41.8735L417.9 44.2609C417.886 44.331 417.886 44.4031 417.9 44.4732L418.205 46.6351C418.223 46.812 418.202 46.9908 418.142 47.1583C418.083 47.3258 417.986 47.4779 417.86 47.6034C417.79 47.6876 417.7 47.7533 417.598 47.7949C417.496 47.8365 417.386 47.8527 417.277 47.8421L415.698 47.6432L414.173 49.6858C414.099 49.767 414.009 49.8314 413.908 49.8749C413.808 49.9184 413.699 49.9398 413.589 49.9378ZM412.581 45.07L413.802 45.9454C413.904 46.0311 413.982 46.1429 414.026 46.2689C414.07 46.395 414.08 46.5307 414.054 46.6617L413.908 48.7308L415.234 47.0596C415.31 46.9519 415.411 46.865 415.53 46.807C415.648 46.7491 415.779 46.7219 415.91 46.728L417.489 46.927C417.489 46.927 417.555 46.7147 417.489 46.6086L417.184 44.4466C417.163 44.2073 417.213 43.9672 417.33 43.7569L418.656 41.3694L417.197 41.9265C417.127 41.957 417.053 41.9732 416.977 41.9743C416.901 41.9755 416.825 41.9614 416.755 41.933C416.684 41.9046 416.62 41.8624 416.567 41.8089C416.513 41.7554 416.47 41.6917 416.441 41.6215L415.791 40.2951L415.008 42.8682C414.943 43.1048 414.804 43.3141 414.611 43.4651L412.86 44.7915C412.736 44.8473 412.637 44.9464 412.581 45.07Z" fill="#E0E0E0"/>
<g opacity="0.5">
<path d="M424.187 35.8518C423.957 35.8541 423.733 35.7799 423.55 35.641C423.368 35.502 423.236 35.3061 423.177 35.0842C423.118 34.8623 423.134 34.627 423.223 34.4153C423.312 34.2037 423.469 34.0277 423.67 33.9152L432.079 29.0607C432.196 28.9919 432.326 28.947 432.461 28.9284C432.596 28.9098 432.734 28.918 432.865 28.9525C432.997 28.987 433.121 29.0471 433.229 29.1294C433.338 29.2117 433.429 29.3145 433.498 29.4321C433.567 29.5497 433.612 29.6797 433.63 29.8146C433.649 29.9496 433.641 30.0869 433.606 30.2186C433.572 30.3504 433.512 30.4741 433.429 30.5827C433.347 30.6912 433.244 30.7825 433.127 30.8513L424.704 35.7191C424.546 35.8078 424.368 35.8536 424.187 35.8518Z" fill="#455A64"/>
<path d="M424.187 40.7196C424.005 40.7193 423.826 40.6714 423.667 40.5807C423.509 40.49 423.377 40.3595 423.285 40.2023C423.216 40.084 423.172 39.9533 423.154 39.8178C423.136 39.6822 423.146 39.5444 423.181 39.4125C423.217 39.2805 423.279 39.1569 423.363 39.0489C423.446 38.9409 423.551 38.8505 423.67 38.7831L432.079 33.9153C432.316 33.8065 432.585 33.7898 432.833 33.8685C433.081 33.9473 433.292 34.1158 433.423 34.3411C433.553 34.5664 433.596 34.8325 433.541 35.0873C433.486 35.3421 433.339 35.5674 433.127 35.7192L424.704 40.5737C424.548 40.6665 424.369 40.7167 424.187 40.7196Z" fill="#455A64"/>
<path d="M424.187 45.5741C424.005 45.5738 423.826 45.5259 423.667 45.4352C423.509 45.3445 423.377 45.2141 423.285 45.0568C423.217 44.9396 423.173 44.8099 423.155 44.6753C423.137 44.5408 423.147 44.404 423.182 44.2731C423.218 44.1422 423.28 44.0198 423.363 43.9129C423.447 43.8061 423.551 43.717 423.67 43.6509L432.079 38.7831C432.197 38.7143 432.326 38.6693 432.461 38.6507C432.596 38.6322 432.734 38.6404 432.865 38.6748C432.997 38.7093 433.121 38.7694 433.23 38.8517C433.338 38.934 433.429 39.0369 433.498 39.1545C433.567 39.272 433.612 39.402 433.631 39.537C433.649 39.6719 433.641 39.8092 433.606 39.941C433.572 40.0728 433.512 40.1965 433.43 40.305C433.347 40.4136 433.244 40.5049 433.127 40.5737L424.704 45.4415C424.546 45.5302 424.368 45.5759 424.187 45.5741Z" fill="#455A64"/>
</g>
<path d="M106.335 213.015V232.473L100.711 229.223V209.779L106.335 213.015Z" fill="#E0E0E0"/>
<path d="M334.933 128.539L333.252 129.521L338.112 111.347L339.767 110.38L344.627 122.871L342.947 123.854L338.991 113.259L338.888 113.319L334.933 128.539ZM335.553 122.187L342.327 118.227V119.874L335.553 123.834V122.187ZM346.689 121.666V106.333L348.215 105.441V111.101L348.344 111.026C348.456 110.76 348.611 110.415 348.809 109.99C349.012 109.557 349.3 109.109 349.675 108.645C350.054 108.174 350.567 107.749 351.213 107.371C352.049 106.883 352.786 106.694 353.424 106.805C354.062 106.917 354.559 107.312 354.917 107.991C355.275 108.671 355.453 109.614 355.453 110.822C355.453 112.04 355.275 113.2 354.917 114.303C354.559 115.4 354.064 116.379 353.43 117.238C352.797 118.093 352.067 118.762 351.239 119.245C350.602 119.618 350.091 119.794 349.708 119.774C349.324 119.749 349.029 119.639 348.822 119.446C348.615 119.247 348.456 119.076 348.344 118.932L348.163 119.037V120.804L346.689 121.666ZM348.189 115.039C348.189 115.908 348.299 116.61 348.518 117.145C348.738 117.675 349.059 118.004 349.481 118.132C349.904 118.254 350.421 118.137 351.033 117.779C351.67 117.406 352.202 116.9 352.629 116.262C353.06 115.616 353.383 114.898 353.598 114.108C353.818 113.31 353.928 112.503 353.928 111.684C353.928 110.875 353.82 110.21 353.605 109.687C353.394 109.156 353.073 108.828 352.642 108.7C352.215 108.565 351.679 108.687 351.033 109.064C350.412 109.427 349.891 109.914 349.468 110.525C349.046 111.132 348.727 111.822 348.512 112.597C348.296 113.367 348.189 114.181 348.189 115.039ZM361.82 113.06C360.923 113.584 360.137 113.796 359.461 113.698C358.788 113.597 358.263 113.213 357.884 112.546C357.509 111.877 357.321 110.948 357.321 109.76C357.321 108.562 357.509 107.407 357.884 106.295C358.263 105.179 358.788 104.178 359.461 103.291C360.137 102.402 360.923 101.695 361.82 101.171C362.716 100.647 363.5 100.436 364.172 100.537C364.849 100.635 365.374 101.022 365.749 101.696C366.129 102.368 366.318 103.303 366.318 104.5C366.318 105.688 366.129 106.837 365.749 107.947C365.374 109.055 364.849 110.054 364.172 110.943C363.5 111.83 362.716 112.536 361.82 113.06ZM361.82 111.473C362.5 111.075 363.061 110.545 363.5 109.884C363.94 109.223 364.265 108.501 364.476 107.719C364.687 106.936 364.793 106.161 364.793 105.392C364.793 104.624 364.687 103.969 364.476 103.429C364.265 102.888 363.94 102.542 363.5 102.39C363.061 102.237 362.5 102.36 361.82 102.758C361.139 103.156 360.579 103.688 360.139 104.354C359.7 105.021 359.374 105.747 359.163 106.535C358.952 107.322 358.847 108.1 358.847 108.868C358.847 109.637 358.952 110.289 359.163 110.825C359.374 111.36 359.7 111.701 360.139 111.849C360.579 111.996 361.139 111.871 361.82 111.473ZM374.903 100.47V93.672L376.428 92.7803V104.28L374.903 105.172V103.225L374.799 103.285C374.567 104.005 374.205 104.714 373.714 105.41C373.222 106.102 372.602 106.666 371.852 107.105C371.232 107.468 370.68 107.633 370.198 107.6C369.715 107.563 369.336 107.306 369.06 106.828C368.784 106.345 368.646 105.615 368.646 104.637V97.3296L370.172 96.4379V103.625C370.172 104.464 370.374 105.014 370.779 105.276C371.189 105.536 371.71 105.481 372.343 105.111C372.723 104.889 373.108 104.551 373.5 104.097C373.897 103.641 374.229 103.103 374.496 102.482C374.767 101.859 374.903 101.189 374.903 100.47ZM383.539 88.623V90.1203L378.395 93.128V91.6307L383.539 88.623ZM379.894 87.9989L381.419 87.1072V98.0677C381.419 98.5669 381.482 98.9047 381.607 99.0812C381.736 99.2502 381.9 99.3191 382.098 99.2881C382.301 99.2496 382.514 99.1648 382.738 99.0338C382.906 98.9356 383.044 98.845 383.152 98.7621C383.259 98.6741 383.346 98.6038 383.41 98.551L383.72 99.9568C383.617 100.062 383.473 100.192 383.287 100.345C383.102 100.503 382.867 100.665 382.583 100.831C382.152 101.083 381.73 101.223 381.316 101.25C380.907 101.275 380.566 101.147 380.295 100.866C380.028 100.583 379.894 100.107 379.894 99.4386V87.9989ZM397.209 87.4293V80.6314L398.735 79.7397V91.2392L397.209 92.131V90.1844L397.106 90.2449C396.873 90.9649 396.511 91.6731 396.02 92.3695C395.529 93.061 394.908 93.6259 394.159 94.0642C393.538 94.4269 392.987 94.5921 392.504 94.5598C392.021 94.5225 391.642 94.265 391.366 93.7874C391.091 93.3047 390.953 92.5743 390.953 91.596V84.289L392.478 83.3973V90.5845C392.478 91.423 392.681 91.9734 393.086 92.2358C393.495 92.4956 394.016 92.4403 394.65 92.07C395.029 91.8484 395.415 91.5106 395.807 91.0568C396.203 90.6004 396.535 90.0621 396.802 89.4417C397.073 88.8188 397.209 88.148 397.209 87.4293ZM408.56 76.5708L407.19 77.8211C407.104 77.6069 406.977 77.4242 406.809 77.2729C406.645 77.114 406.421 77.0354 406.137 77.0369C405.852 77.0385 405.488 77.169 405.044 77.4284C404.437 77.7836 403.93 78.2418 403.525 78.803C403.125 79.3567 402.924 79.8806 402.924 80.3748C402.924 80.814 403.062 81.0803 403.338 81.1736C403.614 81.2669 404.045 81.2271 404.631 81.0543L406.104 80.612C406.992 80.3427 407.653 80.3378 408.088 80.5975C408.524 80.8522 408.741 81.3813 408.741 82.1848C408.741 82.8437 408.578 83.5284 408.25 84.2389C407.927 84.9469 407.474 85.6207 406.893 86.2602C406.311 86.8997 405.635 87.4449 404.863 87.8958C403.851 88.4878 403.013 88.7232 402.349 88.602C401.686 88.4809 401.265 87.9828 401.089 87.1078L402.537 85.8422C402.674 86.3805 402.935 86.6922 403.319 86.7775C403.706 86.8602 404.213 86.719 404.837 86.3537C405.548 85.9381 406.113 85.4334 406.531 84.8397C406.953 84.2384 407.164 83.6908 407.164 83.1966C407.164 82.7974 407.044 82.5335 406.802 82.405C406.561 82.2716 406.19 82.2836 405.691 82.441L404.036 82.9591C403.127 83.2411 402.459 83.2447 402.032 82.97C401.61 82.6878 401.399 82.1499 401.399 81.3563C401.399 80.7075 401.556 80.0416 401.871 79.3586C402.19 78.673 402.623 78.0281 403.17 77.4237C403.721 76.8167 404.346 76.3092 405.044 75.9012C406.027 75.3268 406.798 75.1255 407.358 75.2971C407.923 75.4662 408.323 75.8908 408.56 76.5708Z" fill="white"/>
<path opacity="0.1" d="M120.7 298.646L212.286 245.763V395.073L120.435 447.81L120.7 298.646Z" fill="#BA68C8"/>
<path opacity="0.15" d="M232.473 236.863L342.96 173.078C345.188 171.752 346.939 172.76 346.939 175.24C346.856 176.612 346.453 177.946 345.762 179.135C345.071 180.323 344.111 181.333 342.96 182.084L232.46 246.586C230.245 247.912 228.481 246.851 228.481 244.291V243.827C228.555 242.435 228.955 241.08 229.649 239.87C230.342 238.661 231.31 237.631 232.473 236.863Z" fill="#BA68C8"/>
<path opacity="0.1" d="M231.319 256.189L414.146 150.636C415.738 149.721 417.025 150.371 417.025 152.082C416.955 153.048 416.657 153.984 416.157 154.814C415.657 155.643 414.968 156.343 414.146 156.857L231.319 262.409C229.741 263.324 228.454 262.675 228.454 260.964C228.524 259.999 228.82 259.064 229.317 258.234C229.815 257.405 230.501 256.704 231.319 256.189Z" fill="#BA68C8"/>
<path opacity="0.1" d="M231.319 268.683L414.146 163.13C415.738 162.215 417.025 162.865 417.025 164.576C416.955 165.542 416.657 166.479 416.157 167.308C415.657 168.138 414.968 168.838 414.146 169.351L231.319 274.904C229.741 275.819 228.454 275.169 228.454 273.445C228.526 272.482 228.823 271.55 229.32 270.723C229.818 269.896 230.502 269.197 231.319 268.683Z" fill="#BA68C8"/>
<path opacity="0.1" d="M231.319 281.164L414.146 175.612C415.738 174.696 417.025 175.346 417.025 177.071C416.953 178.035 416.654 178.968 416.154 179.795C415.654 180.623 414.966 181.32 414.146 181.832L231.319 287.358C229.741 288.274 228.454 287.624 228.454 285.899C228.532 284.942 228.831 284.016 229.329 283.194C229.826 282.372 230.507 281.677 231.319 281.164Z" fill="#BA68C8"/>
<path opacity="0.1" d="M231.319 293.659L414.146 188.106C415.738 187.191 417.025 187.841 417.025 189.552C416.955 190.518 416.657 191.454 416.157 192.284C415.657 193.114 414.968 193.813 414.146 194.327L231.319 299.879C229.741 300.795 228.454 300.145 228.454 298.434C228.524 297.469 228.82 296.534 229.317 295.704C229.815 294.875 230.501 294.174 231.319 293.659Z" fill="#BA68C8"/>
<path opacity="0.1" d="M231.319 306.153L358.89 231.876C360.468 230.961 361.755 231.611 361.755 233.335C361.683 234.298 361.386 235.23 360.889 236.057C360.391 236.884 359.707 237.583 358.89 238.097L231.319 312.374C229.741 313.289 228.454 312.639 228.454 310.915C228.526 309.952 228.823 309.02 229.32 308.193C229.818 307.366 230.502 306.667 231.319 306.153Z" fill="#BA68C8"/>
<path opacity="0.1" d="M231.319 331.129L414.146 225.576C415.738 224.661 417.025 225.311 417.025 227.022C416.955 227.988 416.657 228.924 416.157 229.754C415.657 230.584 414.968 231.283 414.146 231.797L231.319 337.349C229.741 338.265 228.454 337.615 228.454 335.904C228.524 334.939 228.82 334.004 229.317 333.174C229.815 332.345 230.501 331.644 231.319 331.129Z" fill="#BA68C8"/>
<path opacity="0.1" d="M231.319 343.623L414.146 238.07C415.738 237.155 417.025 237.805 417.025 239.516C416.955 240.482 416.657 241.419 416.157 242.248C415.657 243.078 414.968 243.778 414.146 244.291L231.319 349.844C229.741 350.759 228.454 350.109 228.454 348.385C228.526 347.422 228.823 346.49 229.32 345.663C229.818 344.836 230.502 344.137 231.319 343.623Z" fill="#BA68C8"/>
<path opacity="0.1" d="M231.319 356.104L414.146 250.552C415.738 249.636 417.025 250.286 417.025 252.011C416.953 252.975 416.654 253.908 416.154 254.735C415.654 255.563 414.966 256.26 414.146 256.772L231.319 362.338C229.741 363.253 228.454 362.604 228.454 360.879C228.526 359.915 228.823 358.981 229.32 358.152C229.818 357.323 230.502 356.621 231.319 356.104Z" fill="#BA68C8"/>
<path opacity="0.1" d="M231.319 368.599L298.513 329.391C300.092 328.476 301.378 329.126 301.378 330.85C301.307 331.813 301.01 332.745 300.512 333.572C300.015 334.399 299.33 335.098 298.513 335.612L231.332 374.819C229.754 375.735 228.468 375.085 228.468 373.374C228.536 372.41 228.829 371.476 229.325 370.646C229.82 369.817 230.503 369.116 231.319 368.599Z" fill="#BA68C8"/>
<path d="M475.637 296.908C485.359 265.367 494.816 244.583 485.174 238.15C476.207 239.821 472.188 244.265 470.278 256.096C468.276 268.497 464.111 285.793 461.683 295.768C459.585 304.103 456.583 312.184 452.73 319.868C452.15 320.932 451.209 321.755 450.078 322.189C447.08 323.369 445.648 324.842 443.207 326.646C441.284 327.972 439.878 328.158 439.971 328.728C440.128 329.368 440.53 329.921 441.091 330.268C441.651 330.615 442.325 330.729 442.968 330.585C444.409 330.313 445.812 329.867 447.146 329.259C445.999 332.165 444.213 334.776 441.921 336.898C437.212 340.878 437.941 344.764 445.488 345.215C448.141 345.374 454.468 342.907 460.291 332.999C462.26 329.306 463.992 325.492 465.477 321.579C469.536 311.419 473.687 303.275 475.637 296.908Z" fill="#FFA8A7"/>
<path d="M486.858 237.779C486.858 237.779 479.377 237.394 474.841 242.394C470.305 247.395 465.026 277.265 465.026 277.265C465.026 277.265 469.987 284.082 483.065 281.244L486.858 237.779Z" fill="#BA68C8"/>
<path opacity="0.3" d="M486.858 237.779C486.858 237.779 479.377 237.394 474.841 242.394C470.305 247.395 465.026 277.265 465.026 277.265C465.026 277.265 469.987 284.082 483.065 281.244L486.858 237.779Z" fill="#6391BA"/>
<path d="M521.888 449.68H511.847V467.586H521.888V449.68Z" fill="#FFA8A7"/>
<path d="M487.07 448.725L477.03 449.096L476.526 430.142L487.07 429.784V448.725Z" fill="#FFA8A7"/>
<path d="M523.307 294.653C523.307 304.641 521.835 385.019 521.835 385.019C522.06 387.897 524.646 393.203 524.089 404.238C523.333 419.226 522.312 458.62 522.312 458.62C520.589 459.507 518.687 459.989 516.749 460.031C514.811 460.072 512.89 459.671 511.131 458.858C511.131 458.858 501.634 404.278 499.843 389.409C498.265 376.451 495.599 332.787 495.599 332.787L490.161 383.547C491.32 389.01 491.739 394.605 491.408 400.18C490.93 407.05 487.707 442.849 487.707 442.849C485.971 443.872 484.025 444.486 482.016 444.645C480.008 444.803 477.989 444.502 476.115 443.764C476.115 443.764 470.398 389.86 470.278 383.547C470.146 376.358 473.621 294.534 473.621 294.534L523.307 294.653Z" fill="#37474F"/>
<path d="M511.847 462.44V460.941C510.879 461.378 508.65 470.225 504.671 474.045C501.501 477.043 497.177 480.518 496.076 483.874C494.975 487.229 502.098 489.299 505.056 488.755C508.491 488.118 514.46 485.598 515.945 483.25C517.431 480.903 518.147 477.467 519.367 475.756C520.588 474.045 523.347 472.135 524.036 470.146C524.408 469.058 524.036 466.671 523.466 464.655C522.896 462.639 522.498 460.768 521.888 460.941V462.081C520.48 463.249 518.703 463.879 516.874 463.859C515.402 463.899 511.834 463.594 511.847 462.44Z" fill="#263238"/>
<path d="M476.924 445.86C476.406 445.86 475.982 446.642 474.828 447.942C473.123 449.74 471.128 451.238 468.926 452.372C465.159 454.335 457.85 457.346 454.534 458.898C452.479 459.866 452.571 462.466 454.707 463.952C456.842 465.437 462.002 466.498 468.196 465.052C471.565 464.27 475.969 461.073 478.741 461.193C481.513 461.312 486.699 461.339 488.781 459.866C490.864 458.394 490.015 455.251 489.431 452.545C488.795 449.6 488.012 444.998 487.07 445.197V446.218C485.863 448.115 479.629 448.871 476.977 447.544L476.924 445.86Z" fill="#263238"/>
<path d="M495.599 332.8C490.373 331.093 485.596 328.238 481.619 324.444C481.619 324.444 484.272 329.749 492.336 334.604L490.625 379.939L495.599 332.8Z" fill="#263238"/>
<path d="M518.081 240.166C518.081 240.166 525.933 240.896 525.376 255.857L523.638 279.732V315.544C516.25 323.913 483.516 323.29 472.308 314.867C472.308 314.867 473.568 272.516 474.324 256.215C474.868 244.636 477.534 238.8 488.914 237.527L502.907 238.137L518.081 240.166Z" fill="#6391BA"/>
<path opacity="0.3" d="M495.758 248.018L493.954 260.592L489.763 260.513L494.498 261.269L495.758 248.018Z" fill="black"/>
<path d="M506.236 206.45C506.318 210.498 504.79 214.413 501.987 217.335C499.184 220.257 495.336 221.947 491.288 222.035C483.025 222.035 476.698 215.045 476.327 206.463C475.677 191.249 483.025 190.878 491.288 190.878C495.334 190.965 499.18 192.654 501.982 195.573C504.785 198.492 506.314 202.404 506.236 206.45Z" fill="#263238"/>
<path d="M514.712 214.156C514.712 214.156 512.417 225.377 511.502 227.221C510.91 228.345 509.9 229.193 508.69 229.582L508.849 221.69L514.712 214.156Z" fill="#263238"/>
<path d="M511.873 198.08C511.873 198.08 513.518 197.669 515.269 200.402C516.768 202.736 517.113 207.988 514.752 214.156L510.441 214.673L511.873 198.08Z" fill="#263238"/>
<path d="M509.141 214.673C510.003 215.217 511.237 213.48 512.311 212.312C513.385 211.145 516.861 209.567 518.611 213.373C520.362 217.18 517.073 222.406 514.327 223.308C509.592 224.86 508.889 221.69 508.889 221.69L508.518 239.463C502.244 249.185 488.012 248.827 493.132 238.999V233.587C491.024 233.938 488.885 234.053 486.752 233.932C483.277 233.362 481.088 230.51 480.027 226.584C478.329 220.284 477.693 215.204 479.125 202.802C480.717 189.207 495.891 189.088 504.101 194.512C512.311 199.937 509.141 214.673 509.141 214.673Z" fill="#FFA8A7"/>
<path d="M508.597 235.484C507.138 238.471 505.042 241.101 502.456 243.19C500.259 244.814 497.71 245.895 495.015 246.347C497.238 247.853 499.059 249.879 500.321 252.249C501.899 255.698 512.948 246.188 512.842 239.437C512.842 239.437 511.117 232.659 508.73 232.234L508.597 235.484Z" fill="#263238"/>
<path d="M495.015 246.347C495.015 246.347 491.606 244.662 493.132 238.999V233.587L491.633 233.786C489.886 235.488 488.647 237.642 488.052 240.007C487.707 241.559 486.858 249.411 488.357 250.963C489.856 252.515 491.951 246.771 495.015 246.347Z" fill="#263238"/>
<path d="M503.332 199.818C503.72 199.733 504.123 199.756 504.499 199.884C505.825 200.468 506.064 204.473 506.289 205.627C507.046 209.514 507.682 216.106 509.141 216.132C509.579 216.132 511.237 213.281 512.311 212.259C513.81 210.84 511.874 198.027 511.874 198.027C512.269 196.921 512.344 195.725 512.091 194.578C511.837 193.431 511.266 192.378 510.441 191.541C507.788 188.464 503.517 187.774 499.658 187.562C495.108 187.31 490.492 187.655 486.009 186.66C484.601 186.269 483.17 185.963 481.725 185.745C481.664 185.719 481.599 185.706 481.533 185.706C481.467 185.706 481.401 185.719 481.34 185.745C481.195 185.864 481.221 186.09 481.261 186.276C481.542 187.619 482.015 188.914 482.667 190.122C479.998 189.911 477.363 189.391 474.815 188.57C474.668 188.524 474.511 188.524 474.364 188.57C474.059 188.663 474.006 189.061 474.032 189.379C474.205 192.589 475.73 197.444 478.343 199.327C480.659 200.844 483.348 201.693 486.115 201.781C493.145 202.046 497.469 200.561 503.332 199.818Z" fill="#263238"/>
<path d="M511.873 198.757L517.113 195.825C516.952 195.465 516.719 195.141 516.427 194.876C516.135 194.61 515.79 194.409 515.416 194.284C515.041 194.159 514.645 194.114 514.252 194.151C513.859 194.188 513.478 194.307 513.133 194.499C512.436 194.929 511.922 195.602 511.69 196.387C511.458 197.173 511.523 198.016 511.873 198.757Z" fill="#263238"/>
<path d="M493.145 233.587C493.145 233.587 500.904 231.956 503.623 230.457C505.234 229.571 506.542 228.222 507.377 226.584C506.972 228.231 506.247 229.781 505.242 231.147C503.265 233.799 493.145 235.736 493.145 235.736V233.587Z" fill="#F28F8F"/>
<path d="M495.015 212.657C495.043 212.956 495.158 213.241 495.345 213.476C495.531 213.711 495.782 213.887 496.067 213.983C496.352 214.078 496.659 214.089 496.949 214.013C497.24 213.938 497.503 213.78 497.706 213.558C497.908 213.336 498.042 213.061 498.091 212.764C498.14 212.468 498.102 212.164 497.982 211.888C497.861 211.613 497.663 211.379 497.412 211.214C497.161 211.049 496.867 210.961 496.567 210.959C496.353 210.966 496.142 211.016 495.947 211.105C495.752 211.195 495.577 211.322 495.433 211.481C495.288 211.639 495.177 211.825 495.105 212.027C495.033 212.229 495.003 212.443 495.015 212.657Z" fill="#263238"/>
<path d="M497.469 205.946L500.798 207.856C501.039 207.396 501.103 206.865 500.978 206.361C500.854 205.858 500.549 205.418 500.122 205.123C499.899 204.981 499.648 204.889 499.386 204.853C499.124 204.818 498.857 204.84 498.604 204.918C498.352 204.997 498.119 205.129 497.923 205.307C497.727 205.484 497.572 205.702 497.469 205.946Z" fill="#263238"/>
<path d="M493.848 223.852L490.293 225.178C490.364 225.422 490.483 225.649 490.645 225.846C490.807 226.042 491.007 226.203 491.233 226.318C491.459 226.434 491.707 226.502 491.961 226.518C492.214 226.534 492.468 226.498 492.707 226.412C493.18 226.201 493.558 225.823 493.769 225.35C493.979 224.878 494.008 224.344 493.848 223.852Z" fill="#F28F8F"/>
<path d="M480.73 207.365L483.768 204.924C483.631 204.711 483.45 204.528 483.237 204.39C483.025 204.251 482.785 204.159 482.534 204.12C482.283 204.082 482.027 204.097 481.782 204.164C481.538 204.232 481.31 204.351 481.115 204.513C480.71 204.857 480.446 205.338 480.375 205.865C480.304 206.392 480.43 206.926 480.73 207.365Z" fill="#263238"/>
<path d="M482.07 212.193C482.061 212.405 482.094 212.616 482.168 212.815C482.241 213.014 482.353 213.197 482.497 213.352C482.642 213.507 482.815 213.633 483.008 213.721C483.201 213.809 483.41 213.857 483.622 213.864C484.068 213.864 484.497 213.687 484.813 213.371C485.129 213.055 485.306 212.626 485.306 212.18C485.306 211.733 485.129 211.304 484.813 210.988C484.497 210.673 484.068 210.495 483.622 210.495C483.192 210.519 482.79 210.71 482.5 211.028C482.21 211.345 482.055 211.763 482.07 212.193Z" fill="#263238"/>
<path d="M490.399 210.893L490.214 220.721L484.63 219.435L490.399 210.893Z" fill="#F28F8F"/>
<path d="M533.361 220.774C535.602 217.803 540.138 224.395 542.234 228.945C544.33 233.494 544.37 236.068 542.645 237.871C540.921 239.675 537.671 238.588 534.422 234.277C531.172 229.966 532.074 222.963 533.361 220.774Z" fill="#BA68C8"/>
<path opacity="0.5" d="M533.361 220.774C535.602 217.803 540.138 224.395 542.234 228.945C544.33 233.494 544.37 236.068 542.645 237.871C540.921 239.675 537.671 238.588 534.422 234.277C531.172 229.966 532.074 222.963 533.361 220.774Z" fill="black"/>
<path d="M549.197 221.65C541.239 240.219 530.164 250.684 525.19 262.635C518.678 262.197 513.598 246.453 518.452 239.728C518.452 239.728 537.525 219.077 539.25 210.959C540.788 203.757 542.844 191.873 542.672 185.758C542.603 184.762 542.185 183.823 541.491 183.106C539.488 180.944 539.488 179.219 538.202 176.845C537.207 174.988 536.106 174.298 536.425 173.874C536.837 173.433 537.4 173.163 538.003 173.119C538.605 173.075 539.202 173.259 539.674 173.635C540.594 174.308 541.42 175.102 542.128 175.996C542.373 173.612 541.984 171.205 541.001 169.019C538.785 164.006 539.329 161.459 546.08 163.236C550.325 164.364 552.978 167.892 553.614 178.065C553.909 182.299 553.936 186.548 553.694 190.785C552.951 198.624 552.487 206.795 551.519 213.334C551.101 216.193 550.321 218.987 549.197 221.65Z" fill="#FFA8A7"/>
<path d="M516.463 239.954L533.281 220.721C533.281 220.721 531.278 225.404 535.655 232.234C540.032 239.065 542.632 237.871 542.632 237.871C542.632 237.871 532.697 252.369 530.045 257.223C527.392 262.078 524.62 266.176 524.62 266.176C524.326 266.742 523.87 267.208 523.31 267.513C522.75 267.818 522.111 267.948 521.476 267.887C519.009 267.887 512.47 256.931 516.463 239.954Z" fill="#BA68C8"/>
<path opacity="0.3" d="M516.463 239.954L533.281 220.721C533.281 220.721 531.278 225.404 535.655 232.234C540.032 239.065 542.632 237.871 542.632 237.871C542.632 237.871 532.697 252.369 530.045 257.223C527.392 262.078 524.62 266.176 524.62 266.176C524.326 266.742 523.87 267.208 523.31 267.513C522.75 267.818 522.111 267.948 521.476 267.887C519.009 267.887 512.47 256.931 516.463 239.954Z" fill="#6391BA"/>
<path d="M379.979 283.18L387.897 293.725L379.382 303.474L368.413 290.648L379.979 283.18Z" fill="#F28F8F"/>
<path d="M354.048 259.2C360.959 259.518 364.248 260.526 367.869 264.85C371.49 269.174 389.582 295.317 389.582 295.317C389.582 295.317 386.385 304.283 379.382 303.514L366.662 290.396L354.048 259.2Z" fill="#455A64"/>
<path d="M320.146 478.21C319.655 480.96 319.389 483.746 319.351 486.54C319.258 491.58 318.329 493.384 318.21 497.522C318.064 502.257 318.886 504.035 320.863 506.687C322.839 509.34 327.826 511.767 329.962 507.271C332.097 502.775 331.818 499.83 331.129 495.174C330.439 490.519 330.333 487.72 329.935 484.059C329.564 480.823 329.139 478.369 329.139 478.369L320.146 478.21Z" fill="#263238"/>
<path d="M334.484 438.565L317.839 438.26C318.091 449.375 319.855 467.864 320.146 478.276C320.146 480.239 320.146 493.516 320.836 497.562C321.95 503.623 329.139 502.801 329.524 499.18C329.908 495.559 329.06 480.04 329.086 478.436C329.02 471.804 332.15 454.322 333.795 442.318C333.874 441.669 334.405 439.069 334.484 438.565Z" fill="#FFBDA7"/>
<path d="M358.929 469.575C358.929 469.575 358.081 469.575 357.935 470.318C357.789 471.061 357.736 472.467 357.391 473.846C356.825 476.009 356.628 478.251 356.807 480.478C357.086 482.03 360.627 484.338 363.055 484.749C365.482 485.16 368.891 487.548 370.787 489.338C373.833 491.852 377.601 493.33 381.544 493.556C385.523 493.556 388.401 492.23 389.728 490.055C391.054 487.879 388.521 487.627 383.905 484.63L380.311 482.295C373.002 477.52 370.323 474.96 368.254 470.186L358.929 469.575Z" fill="#263238"/>
<path d="M368.307 466.976C368.188 463.527 369.938 438.193 369.938 438.193L355.627 439.812C359.022 459.999 359.288 466.883 358.903 469.827C358.831 470.1 358.8 470.381 358.81 470.663C358.81 474.642 363.253 476.711 366.768 479.324C368.095 480.359 371.636 483.542 375.748 484.935C378.401 485.85 383.321 486.261 383.945 484.577C379.754 481.367 374.024 477.176 370.681 473.501C369.036 471.724 368.426 470.398 368.307 466.976Z" fill="#FFBDA7"/>
<path d="M321.698 323.648C313.899 340.705 321.99 400.763 321.99 400.763C321.751 403.535 318.581 408.973 317.414 421.163C316.021 435.541 319.974 474.072 319.974 474.072C321.368 474.917 322.96 475.381 324.59 475.416C326.219 475.45 327.83 475.056 329.259 474.271C329.259 474.271 339.326 417.661 341.196 403.363C342.774 390.868 345.798 363.413 345.798 363.413L354.393 403.283C353.133 407.31 352.219 411.437 351.661 415.619C350.852 424.028 359.049 466.273 359.049 466.273C360.526 466.883 362.113 467.181 363.711 467.149C365.308 467.117 366.882 466.756 368.334 466.087C368.334 466.087 371.955 411.52 372.724 401.387C374.05 384.356 369.474 331.235 366.357 321.154L321.698 323.648Z" fill="#BA68C8"/>
<path opacity="0.5" d="M321.698 323.648C313.899 340.705 321.99 400.763 321.99 400.763C321.751 403.535 318.581 408.973 317.414 421.163C316.021 435.541 319.974 474.072 319.974 474.072C321.368 474.917 322.96 475.381 324.59 475.416C326.219 475.45 327.83 475.056 329.259 474.271C329.259 474.271 339.326 417.661 341.196 403.363C342.774 390.868 345.798 363.413 345.798 363.413L354.393 403.283C353.133 407.31 352.219 411.437 351.661 415.619C350.852 424.028 359.049 466.273 359.049 466.273C360.526 466.883 362.113 467.181 363.711 467.149C365.308 467.117 366.882 466.756 368.334 466.087C368.334 466.087 371.955 411.52 372.724 401.387C374.05 384.356 369.474 331.235 366.357 321.154L321.698 323.648Z" fill="#6391BA"/>
<path opacity="0.2" d="M345.772 363.413L348.305 347.576C348.305 347.576 359.022 345.361 363.89 340.785C360.533 344.721 356.14 347.639 351.21 349.207L348.358 361.41L353.345 398.323L345.772 363.413Z" fill="black"/>
<path d="M325.704 270.686L336.315 273.445V250.989C330.452 249.464 325.704 252.846 325.704 258.55V270.686Z" fill="#BA68C8"/>
<path opacity="0.6" d="M325.704 270.686L336.315 273.445V250.989C330.452 249.464 325.704 252.846 325.704 258.55V270.686Z" fill="black"/>
<path d="M346.714 254.199L342.907 254.12C331.288 253.841 322.083 243.827 322.335 231.73C322.335 218.546 332.548 207.856 345.202 207.736C357.855 207.67 368.174 218.347 368.241 231.478V232.805C367.922 244.915 358.306 254.451 346.714 254.199Z" fill="#BA68C8"/>
<path opacity="0.6" d="M346.714 254.199L342.907 254.12C331.288 253.841 322.083 243.827 322.335 231.73C322.335 218.546 332.548 207.856 345.202 207.736C357.855 207.67 368.174 218.347 368.241 231.478V232.805C367.922 244.915 358.306 254.451 346.714 254.199Z" fill="black"/>
<path d="M328.927 213.241C328.835 212.856 328.664 212.495 328.425 212.179C328.187 211.863 327.886 211.6 327.541 211.406C327.196 211.211 326.815 211.09 326.421 211.05C326.028 211.01 325.63 211.051 325.253 211.172L326.274 215.151C326.063 214.882 325.802 214.657 325.505 214.488C325.161 214.293 324.78 214.173 324.386 214.135C323.993 214.097 323.596 214.141 323.221 214.266C322.846 214.391 322.501 214.594 322.209 214.86C321.917 215.127 321.684 215.452 321.526 215.814L326.699 218.851C326.968 218.333 327.087 217.75 327.044 217.167C327.784 216.857 328.385 216.286 328.732 215.562C329.079 214.838 329.149 214.012 328.927 213.241Z" fill="#BA68C8"/>
<path opacity="0.6" d="M328.927 213.241C328.835 212.856 328.664 212.495 328.425 212.179C328.187 211.863 327.886 211.6 327.541 211.406C327.196 211.211 326.815 211.09 326.421 211.05C326.028 211.01 325.63 211.051 325.253 211.172L326.274 215.151C326.063 214.882 325.802 214.657 325.505 214.488C325.161 214.293 324.78 214.173 324.386 214.135C323.993 214.097 323.596 214.141 323.221 214.266C322.846 214.391 322.501 214.594 322.209 214.86C321.917 215.127 321.684 215.452 321.526 215.814L326.699 218.851C326.968 218.333 327.087 217.75 327.044 217.167C327.784 216.857 328.385 216.286 328.732 215.562C329.079 214.838 329.149 214.012 328.927 213.241Z" fill="black"/>
<path d="M335.201 260.115C331.629 260.599 328.086 261.281 324.59 262.157C328.702 272.238 322.255 287.809 322.255 287.809L328.343 306.551C324.139 315.159 320.677 319.43 319.245 326.447C323.118 334.007 350.454 341.222 368.254 327.441C368.254 327.441 367.684 308.302 365.416 297.147C371.238 285.78 370.297 282.438 369.103 278.472C366.331 269.254 360.733 265.712 354.062 259.213L350.083 258.788L335.201 260.115Z" fill="#37474F"/>
<path d="M329.02 314.058C332.322 310.676 339.326 309.708 339.326 309.708L332.893 306.047L325.704 288.685C328.721 282.775 330.212 276.205 330.041 269.572L325.903 268.577C326.407 277.769 322.242 287.823 322.242 287.823L328.33 306.564C324.126 315.172 320.664 319.443 319.231 326.46C321.884 331.633 335.532 336.646 349.592 334.869C330.757 333.596 325.85 317.334 329.02 314.058Z" fill="#263238"/>
<path d="M348.053 335.015L348.823 334.935C348.564 334.94 348.307 334.967 348.053 335.015Z" fill="#E6E6E6"/>
<path d="M359.699 219.488C361.98 221.584 364.832 226.12 364.606 239.384C364.407 250.658 360.919 253.456 359.155 254.266C357.391 255.075 354.009 254.61 350.706 254.053V258.722C350.706 258.722 355.056 263.55 354.791 266.68C354.526 269.811 348.584 271.071 344.3 268.007C341.281 265.721 338.602 263.019 336.341 259.982V245.803C336.341 245.803 334.405 247.78 331.036 244.808C328.383 242.341 327.375 238.177 329.484 235.922C330.025 235.388 330.69 234.995 331.418 234.778C332.147 234.561 332.918 234.526 333.663 234.677C334.409 234.828 335.105 235.159 335.693 235.642C336.28 236.125 336.739 236.745 337.031 237.447C342.086 236.918 347.008 235.499 351.568 233.256C354.133 232.022 356.274 230.056 357.721 227.605C359.169 225.154 359.857 222.33 359.699 219.488Z" fill="#FFBDA7"/>
<path d="M350.693 236.85C350.692 237.108 350.616 237.36 350.475 237.575C350.333 237.79 350.132 237.959 349.895 238.062C349.659 238.165 349.398 238.197 349.144 238.154C348.89 238.11 348.654 237.994 348.465 237.819C348.276 237.644 348.142 237.418 348.08 237.168C348.017 236.918 348.029 236.655 348.113 236.412C348.197 236.168 348.351 235.955 348.555 235.797C348.758 235.639 349.004 235.544 349.26 235.524C349.624 235.516 349.977 235.65 350.244 235.898C350.511 236.145 350.672 236.487 350.693 236.85Z" fill="#263238"/>
<path d="M351.21 246.241L354.751 247.395C354.695 247.637 354.59 247.865 354.442 248.064C354.294 248.264 354.106 248.431 353.891 248.555C353.676 248.679 353.438 248.758 353.191 248.787C352.945 248.815 352.695 248.793 352.457 248.721C351.975 248.541 351.579 248.185 351.347 247.725C351.116 247.266 351.067 246.735 351.21 246.241Z" fill="#F79776"/>
<path d="M363.505 231.77L360.282 230.669C360.333 230.454 360.429 230.252 360.562 230.076C360.696 229.9 360.866 229.755 361.059 229.648C361.253 229.542 361.467 229.478 361.688 229.459C361.908 229.441 362.129 229.469 362.338 229.542C362.773 229.704 363.133 230.021 363.348 230.433C363.564 230.844 363.62 231.32 363.505 231.77Z" fill="#263238"/>
<path d="M337.044 236.187V240.949C337.35 240.961 337.655 240.912 337.94 240.802C338.226 240.693 338.486 240.526 338.704 240.312C338.923 240.099 339.096 239.842 339.212 239.559C339.328 239.277 339.384 238.973 339.379 238.667C339.383 238.033 339.143 237.422 338.708 236.96C338.274 236.498 337.678 236.221 337.044 236.187Z" fill="#BA68C8"/>
<path opacity="0.6" d="M337.044 236.187V240.949C337.35 240.961 337.655 240.912 337.94 240.802C338.226 240.693 338.486 240.526 338.704 240.312C338.923 240.099 339.096 239.842 339.212 239.559C339.328 239.277 339.384 238.973 339.379 238.667C339.383 238.033 339.143 237.422 338.708 236.96C338.274 236.498 337.678 236.221 337.044 236.187Z" fill="black"/>
<path d="M362.338 236.386C362.368 236.768 362.244 237.145 361.996 237.436C361.747 237.727 361.393 237.907 361.012 237.938C360.72 237.967 360.426 237.907 360.167 237.767C359.909 237.627 359.699 237.414 359.563 237.153C359.427 236.893 359.372 236.598 359.406 236.306C359.439 236.014 359.559 235.739 359.749 235.516C359.94 235.293 360.193 235.132 360.476 235.054C360.759 234.975 361.059 234.984 361.338 235.077C361.616 235.171 361.86 235.345 362.038 235.578C362.216 235.812 362.321 236.093 362.338 236.386Z" fill="#263238"/>
<path d="M354.778 234.463L354.751 243.694L359.049 242.275L354.778 234.463Z" fill="#F79776"/>
<path d="M350.706 254.106C347.218 253.655 340.095 251.546 338.915 248.602C339.363 250.079 340.246 251.387 341.448 252.356C343.597 254.252 350.733 256.335 350.733 256.335L350.706 254.106Z" fill="#F79776"/>
<path d="M308.262 307.254C308.262 307.254 316.777 319.351 318.236 320.929C319.695 322.507 320.704 321.977 322.282 321.274C324.207 320.496 326.183 319.854 328.198 319.351C330.85 318.701 331.354 321.101 328.781 322.812C326.924 324.059 324.802 324.59 325.677 325.611C327.492 327.254 329.597 328.545 331.885 329.418C338.172 331.898 337.681 333.145 336.527 335.174C335.519 336.951 332.548 340.771 321.353 336.262C316.711 334.392 310.185 329.099 307.108 325.651C302.665 320.73 295.728 311.91 295.728 311.91L308.262 307.254Z" fill="#FFBDA7"/>
<path d="M326.221 261.72C323.144 261.919 317.348 262.661 310.079 274.731C303.699 285.342 293.818 299.68 291.988 304.814C291.245 306.896 294.136 311.207 297.863 315.623C302.943 315.398 307.572 311.883 309.973 309.071C309.343 307.576 308.561 306.149 307.639 304.814L322.547 287.809C322.547 287.809 328.211 282.623 329.391 275.872C330.665 268.551 330.267 262.794 326.221 261.72Z" fill="#455A64"/>
<path d="M409.69 284.613L372.936 294.295L362.816 335.877L397.766 325.73L409.69 284.613Z" fill="#BA68C8"/>
<path opacity="0.25" d="M409.69 284.613L372.936 294.295L362.816 335.877L397.766 325.73L409.69 284.613Z" fill="#6391BA"/>
<g opacity="0.1">
<path d="M393.083 314.058C393.699 315.342 394.679 316.417 395.9 317.148C397.122 317.879 398.532 318.235 399.954 318.17L400.219 317.255L393.083 314.058Z" fill="black"/>
</g>
<g opacity="0.1">
<path d="M398.615 291.218L398.92 289.812C399.092 289.043 396.93 289.003 394.105 289.812L388.68 291.139C385.855 291.881 383.375 293.102 383.255 293.871L382.963 295.277L398.615 291.218Z" fill="black"/>
</g>
<path d="M401.44 285.953C401.546 285.462 400.67 285.329 399.49 285.661L397.341 286.258C397.341 286.258 397.978 283.22 393.229 284.281C391.955 284.469 390.75 284.983 389.732 285.773C388.714 286.563 387.918 287.603 387.42 288.791L385.139 289.441C383.812 289.799 382.725 290.476 382.579 290.953L382.3 291.828L401.241 286.841L401.44 285.953Z" fill="#37474F"/>
<path d="M398.827 287.438C397.102 287.862 396.373 288.088 396.174 289.282C395.975 290.475 395.75 291.643 395.75 291.643L387.38 293.858C387.38 293.858 387.791 292.133 387.924 291.47C388.057 290.807 387.765 290.383 386.425 290.741L386.319 290.21L399.45 286.854L398.827 287.438Z" fill="#37474F"/>
<path d="M399.119 291.338L399.424 289.932C399.596 289.162 397.434 289.123 394.609 289.932L389.184 291.258C386.359 292.001 383.879 293.221 383.759 293.99L383.467 295.396L399.119 291.338Z" fill="#37474F"/>
<path d="M405.817 297.969C405.817 297.969 404.49 302.678 404.132 303.792C403.774 304.906 399.689 306.936 396.996 307.678C394.304 308.421 391.333 309.297 392.619 313.077C393.787 316.565 398.243 317.361 400.498 317.255C402.753 317.149 405.87 315 407.13 311.512C408.682 307.055 407.846 302.307 408.456 299.707C409.066 297.107 407.17 296.418 405.817 297.969Z" fill="#FFBDA7"/>
<path d="M266.587 299.07C261.547 293.99 259.743 295.967 259.107 301.537C258.871 303.874 258.304 306.165 257.422 308.342C257.265 307.185 256.948 306.055 256.48 304.986C256.259 304.408 255.827 303.934 255.271 303.661C254.715 303.388 254.076 303.335 253.483 303.514C252.992 303.713 253.602 304.84 253.483 307.055C253.39 309.814 252.488 311.339 253.138 314.271C253.364 315.373 253.19 316.521 252.647 317.507C249.995 322.547 241.254 331.858 235.126 338.57L211.848 317.547C203.89 310.384 201.317 307.161 193.637 307.678C196.04 308.59 198.252 309.939 200.163 311.658C203.731 314.668 202.882 331.898 202.882 331.898C202.882 331.898 229.303 350.839 232.062 352.642C232.46 352.908 232.871 353.146 233.269 353.372C234.573 354.052 236.069 354.271 237.514 353.994C238.958 353.717 240.267 352.961 241.227 351.847C246.864 345.4 255.088 332.707 259.796 326.115C261.949 322.924 263.869 319.582 265.54 316.114C270.261 306.737 269.744 302.254 266.587 299.07Z" fill="#914F4E"/>
<path d="M194.459 307.254C196.315 306.916 198.221 306.978 200.051 307.436C201.881 307.893 203.592 308.736 205.07 309.907C209.607 313.355 228.945 331.129 228.945 331.129C228.945 331.129 229.476 340.533 219.66 346.13L195.958 329.418L194.459 307.254Z" fill="#BA68C8"/>
<path opacity="0.3" d="M194.459 307.254C196.315 306.916 198.221 306.978 200.051 307.436C201.881 307.893 203.592 308.736 205.07 309.907C209.607 313.355 228.945 331.129 228.945 331.129C228.945 331.129 229.476 340.533 219.66 346.13L195.958 329.418L194.459 307.254Z" fill="#6391BA"/>
<path d="M171.579 519.421H161.539V537.327H171.579V519.421Z" fill="#914F4E"/>
<path d="M196.356 518.465L206.397 518.824L206.901 499.87L196.356 499.512V518.465Z" fill="#914F4E"/>
<path d="M160.12 364.381C160.12 374.368 161.592 454.76 161.592 454.76C161.366 457.625 158.78 462.93 159.337 473.966C160.093 488.967 161.114 528.347 161.114 528.347C162.839 529.23 164.742 529.709 166.679 529.748C168.616 529.788 170.537 529.385 172.296 528.572C172.296 528.572 181.793 473.992 183.596 459.137C185.162 446.165 187.828 402.501 187.828 402.501L193.266 453.274C192.107 458.733 191.687 464.323 192.019 469.894C192.496 476.764 195.719 512.563 195.719 512.563C197.456 513.59 199.404 514.208 201.415 514.369C203.426 514.53 205.447 514.23 207.325 513.492C207.325 513.492 213.029 459.575 213.148 453.274C213.281 446.085 209.806 364.248 209.806 364.248L160.12 364.381Z" fill="#37474F"/>
<path d="M171.579 532.154V530.668C172.548 531.106 174.776 539.953 178.755 543.759C181.925 546.77 186.249 550.245 187.35 553.601C188.451 556.957 181.328 559.013 178.37 558.469C174.935 557.832 168.967 555.312 167.481 552.978C165.995 550.643 165.279 547.181 164.059 545.47C162.839 543.759 160.08 541.849 159.39 539.86C159.193 538.01 159.387 536.139 159.96 534.369C160.425 532.525 160.929 530.496 161.539 530.668V531.809C162.955 532.969 164.735 533.593 166.566 533.573C168.025 533.626 171.593 533.321 171.579 532.154Z" fill="#263238"/>
<path d="M206.503 515.601C207.02 515.601 207.445 516.383 208.599 517.683C210.304 519.476 212.299 520.97 214.501 522.1C218.268 524.063 225.576 527.087 228.892 528.639C230.961 529.607 230.855 532.207 228.72 533.679C226.584 535.151 221.425 536.226 215.23 534.793C211.861 533.997 207.458 530.814 204.619 530.933C201.781 531.053 196.661 531.066 194.579 529.607C192.496 528.148 193.345 524.978 193.929 522.285C194.566 519.328 195.361 514.725 196.29 514.924V515.945C197.497 517.855 203.731 518.598 206.383 517.272L206.503 515.601Z" fill="#263238"/>
<path d="M187.828 402.527C193.053 400.821 197.83 397.966 201.807 394.171C201.807 394.171 199.155 399.477 191.09 404.331L192.801 449.68L187.828 402.527Z" fill="#263238"/>
<path d="M165.346 309.907C165.346 309.907 157.493 310.623 158.051 325.598L159.788 349.472L159.629 385.285C167.004 393.654 199.752 393.044 210.959 384.608C210.959 384.608 209.806 342.257 209.05 325.956C208.506 314.377 205.84 308.541 194.459 307.267L180.453 307.877L165.346 309.907Z" fill="#6391BA"/>
<path opacity="0.3" d="M187.668 317.759L189.472 330.333L193.677 330.253L188.928 330.996L187.668 317.759Z" fill="black"/>
<path d="M140.423 361.317C144.495 328.556 153.872 312.241 165.293 310.358L164.483 331.314C159.728 342.491 156.085 354.108 153.607 365.999C152.108 374.063 150.371 388.083 150.822 394.967C150.912 396.18 151.429 397.322 152.281 398.19C154.536 400.485 155.212 402.474 156.724 405.061C157.918 407.09 159.138 407.806 158.82 408.297C158.41 408.813 157.814 409.149 157.161 409.233C156.507 409.317 155.846 409.143 155.318 408.748C154.121 407.9 153.026 406.916 152.055 405.817C151.91 408.939 152.472 412.054 153.7 414.929C156.353 420.447 155.928 423.351 148.527 421.72C143.885 420.712 140.569 415.817 139.243 404.397C138.894 400.136 138.818 395.856 139.017 391.585C139.521 380.669 139.614 367.869 140.423 361.317Z" fill="#914F4E"/>
<path d="M165.942 309.814C160.014 309.814 154.602 310.835 150.291 319.099C146.166 327.057 142.996 343.888 141.391 349.393C141.391 349.393 150.052 354.513 158.024 354.38L163.634 334.909C163.634 334.909 167.428 325.823 165.942 309.814Z" fill="#BA68C8"/>
<path opacity="0.3" d="M165.942 309.814C160.014 309.814 154.602 310.835 150.291 319.099C146.166 327.057 142.996 343.888 141.391 349.393C141.391 349.393 150.052 354.513 158.024 354.38L163.634 334.909C163.634 334.909 167.428 325.823 165.942 309.814Z" fill="#6391BA"/>
<path d="M178.185 276.098C178.304 279.028 179.283 281.859 180.998 284.238C182.714 286.617 185.091 288.44 187.834 289.479C190.577 290.518 193.565 290.728 196.426 290.082C199.287 289.437 201.896 287.965 203.927 285.849C205.958 283.733 207.323 281.066 207.851 278.181C208.379 275.296 208.047 272.319 206.897 269.621C205.747 266.923 203.829 264.622 201.382 263.005C198.935 261.388 196.066 260.526 193.133 260.526C189.087 260.613 185.241 262.301 182.439 265.221C179.636 268.14 178.107 272.052 178.185 276.098Z" fill="#263238"/>
<path d="M168.675 283.883C168.675 283.883 170.969 295.104 171.885 296.948C172.481 298.077 173.495 298.929 174.71 299.322L174.537 291.364L168.675 283.883Z" fill="#263238"/>
<path d="M171.553 267.808C171.553 267.808 169.855 267.463 168.157 270.116C166.659 272.45 166.327 277.702 168.675 283.87L172.985 284.387L171.553 267.808Z" fill="#263238"/>
<path d="M174.285 284.401C173.423 284.944 172.189 283.207 171.115 282.053C170.041 280.899 166.566 279.294 164.828 283.114C163.091 286.934 166.353 292.147 169.099 293.035C173.834 294.587 174.537 291.417 174.537 291.417L174.909 309.204C181.182 318.913 195.414 318.568 190.294 308.726V303.275C192.402 303.625 194.542 303.741 196.674 303.62C200.149 303.063 202.338 300.198 203.399 296.272C205.097 289.971 205.733 284.891 204.301 272.503C202.723 258.921 187.562 258.775 179.365 264.147C171.168 269.519 174.285 284.401 174.285 284.401Z" fill="#914F4E"/>
<path d="M174.829 305.211C176.289 308.198 178.385 310.828 180.97 312.918C183.17 314.539 185.718 315.625 188.411 316.088C186.191 317.591 184.37 319.612 183.106 321.977C181.541 325.439 170.479 315.928 170.585 309.177C170.585 309.177 172.322 302.399 174.696 301.962L174.829 305.211Z" fill="#263238"/>
<path d="M188.424 316.088C188.424 316.088 191.833 314.39 190.308 308.726V303.275L191.807 303.474C193.553 305.176 194.793 307.329 195.388 309.695C195.733 311.246 196.582 319.099 195.083 320.65C193.584 322.202 191.475 316.539 188.424 316.088Z" fill="#263238"/>
<path d="M174.285 285.926C173.848 285.926 172.19 283.074 171.115 282.053C169.616 280.634 171.553 267.808 171.553 267.808C171.162 266.701 171.09 265.506 171.343 264.36C171.596 263.214 172.165 262.161 172.985 261.322C175.041 258.974 178.463 258.669 184.299 257.767C186.63 257.48 188.941 257.06 191.223 256.507C193.632 255.606 195.951 254.477 198.147 253.138C198.837 252.69 199.665 252.502 200.481 252.607C200.858 252.734 201.194 252.958 201.458 253.256C201.721 253.554 201.901 253.916 201.98 254.305C202.113 255.082 202.113 255.876 201.98 256.653C202.718 255.967 203.697 255.601 204.704 255.636C205.711 255.671 206.663 256.103 207.352 256.839C208.003 257.614 208.427 258.555 208.577 259.557C208.727 260.559 208.596 261.583 208.201 262.515C207.353 264.371 205.966 265.929 204.221 266.985C196.887 271.946 188.225 270.567 180.002 269.638C179.613 269.551 179.208 269.579 178.835 269.718C177.508 270.301 177.27 274.294 177.044 275.448C176.381 279.294 175.744 285.899 174.285 285.926Z" fill="#263238"/>
<path d="M171.553 268.484L166.327 265.553C166.486 265.191 166.718 264.866 167.01 264.599C167.302 264.333 167.647 264.13 168.022 264.005C168.397 263.88 168.794 263.835 169.187 263.873C169.581 263.912 169.962 264.032 170.306 264.226C171.001 264.659 171.512 265.332 171.742 266.117C171.972 266.903 171.905 267.745 171.553 268.484Z" fill="#263238"/>
<path d="M190.281 303.275C190.281 303.275 182.522 301.643 179.803 300.145C178.189 299.263 176.88 297.912 176.049 296.272C176.454 297.918 177.18 299.469 178.185 300.834C180.161 303.487 190.281 305.437 190.281 305.437V303.275Z" fill="#783736"/>
<path d="M187.469 281.92C187.478 282.133 187.445 282.345 187.372 282.545C187.299 282.744 187.187 282.928 187.043 283.084C186.899 283.241 186.725 283.367 186.532 283.457C186.339 283.546 186.13 283.596 185.918 283.605C185.488 283.581 185.086 283.39 184.795 283.072C184.505 282.755 184.351 282.337 184.366 281.907C184.366 281.495 184.529 281.101 184.82 280.81C185.111 280.519 185.506 280.355 185.918 280.355C186.329 280.355 186.724 280.519 187.015 280.81C187.306 281.101 187.469 281.495 187.469 281.907V281.92Z" fill="#263238"/>
<path d="M184.803 275.182L181.474 277.092C181.235 276.619 181.181 276.074 181.323 275.564C181.466 275.053 181.794 274.614 182.243 274.333C182.465 274.21 182.71 274.134 182.962 274.11C183.215 274.087 183.469 274.116 183.71 274.195C183.951 274.275 184.172 274.404 184.36 274.574C184.549 274.744 184.699 274.951 184.803 275.182Z" fill="#263238"/>
<path d="M189.578 293.579L193.133 294.972C193.063 295.216 192.943 295.443 192.782 295.639C192.62 295.834 192.419 295.995 192.192 296.109C191.966 296.224 191.718 296.29 191.464 296.304C191.211 296.319 190.957 296.28 190.719 296.192C190.234 295.981 189.847 295.594 189.636 295.109C189.424 294.625 189.404 294.078 189.578 293.579Z" fill="#783736"/>
<path d="M203.014 277.039L199.513 275.341C199.599 275.104 199.734 274.888 199.909 274.706C200.084 274.525 200.296 274.382 200.53 274.288C200.764 274.195 201.016 274.151 201.268 274.161C201.52 274.171 201.767 274.234 201.993 274.347C202.466 274.589 202.833 274.999 203.022 275.497C203.21 275.994 203.208 276.544 203.014 277.039Z" fill="#263238"/>
<path d="M200.72 281.92C200.74 282.137 200.714 282.356 200.645 282.562C200.576 282.768 200.464 282.958 200.318 283.119C200.171 283.28 199.993 283.408 199.793 283.496C199.594 283.584 199.379 283.629 199.161 283.629C198.944 283.629 198.728 283.584 198.529 283.496C198.33 283.408 198.152 283.28 198.005 283.119C197.858 282.958 197.747 282.768 197.677 282.562C197.608 282.356 197.583 282.137 197.603 281.92C197.594 281.708 197.627 281.497 197.701 281.298C197.774 281.099 197.886 280.917 198.03 280.761C198.175 280.606 198.348 280.481 198.541 280.393C198.734 280.305 198.943 280.256 199.155 280.249C199.583 280.266 199.987 280.451 200.28 280.764C200.573 281.077 200.731 281.492 200.72 281.92Z" fill="#263238"/>
<path d="M191.899 280.713L192.072 290.542L197.656 289.268L191.899 280.713Z" fill="#783736"/>
<path d="M185.069 277.862C184.038 277.862 183.049 278.271 182.321 279C181.592 279.729 181.182 280.717 181.182 281.748C181.182 282.779 181.592 283.767 182.321 284.496C183.049 285.225 184.038 285.634 185.069 285.634H185.772C186.802 285.634 187.791 285.225 188.52 284.496C189.248 283.767 189.658 282.779 189.658 281.748C189.658 280.717 189.248 279.729 188.52 279C187.791 278.271 186.802 277.862 185.772 277.862H185.069ZM180.466 281.748C180.456 280.519 180.933 279.336 181.793 278.458C182.653 277.581 183.826 277.08 185.055 277.066H185.772C186.898 277.214 187.933 277.766 188.682 278.62C189.431 279.474 189.845 280.572 189.845 281.708C189.845 282.844 189.431 283.942 188.682 284.796C187.933 285.65 186.898 286.203 185.772 286.35H185.069C183.85 286.343 182.683 285.856 181.822 284.995C180.96 284.133 180.473 282.966 180.466 281.748Z" fill="#263238"/>
<path d="M199.035 277.862C198.005 277.862 197.016 278.271 196.287 279C195.559 279.729 195.149 280.717 195.149 281.748C195.149 282.779 195.559 283.767 196.287 284.496C197.016 285.225 198.005 285.634 199.035 285.634H199.738C200.769 285.634 201.758 285.225 202.486 284.496C203.215 283.767 203.625 282.779 203.625 281.748C203.625 280.717 203.215 279.729 202.486 279C201.758 278.271 200.769 277.862 199.738 277.862H199.035ZM194.446 281.748C194.435 280.519 194.913 279.336 195.773 278.458C196.633 277.581 197.806 277.08 199.035 277.066H199.738C200.865 277.214 201.899 277.766 202.649 278.62C203.398 279.474 203.811 280.572 203.811 281.708C203.811 282.844 203.398 283.942 202.649 284.796C201.899 285.65 200.865 286.203 199.738 286.35H199.035C197.824 286.333 196.667 285.841 195.814 284.981C194.961 284.12 194.479 282.96 194.473 281.748H194.446Z" fill="#263238"/>
<path d="M190.308 280.819C190.586 280.434 190.95 280.12 191.372 279.901C191.793 279.682 192.26 279.565 192.735 279.559C193.127 279.517 193.523 279.57 193.89 279.713C194.257 279.856 194.584 280.085 194.844 280.382L195.467 279.904C195.136 279.5 194.709 279.185 194.225 278.988C193.741 278.791 193.215 278.718 192.695 278.777C192.093 278.783 191.501 278.935 190.97 279.219C190.439 279.503 189.984 279.911 189.645 280.408L190.308 280.819Z" fill="#263238"/>
<path d="M180.891 280.78H172.985V281.562H180.891V280.78Z" fill="#263238"/>
</svg>
