<svg width="195" height="36" viewBox="0 0 195 36" fill="none" xmlns="http://www.w3.org/2000/svg">
<path d="M100.5 26H112.5V29H100.5V26ZM87 30.5V18.5H82.5L97.5 5L112.5 18.5H105V15.785L97.5 9.035L90 15.785V27.5H97.5C97.5 28.55 97.68 29.555 98.01 30.5H87Z" fill="white"/>
<rect x="97.5" y="23.6666" width="16" height="6" fill="#A27248"/>
</svg>
