<svg width="16" height="16" viewBox="0 0 16 16" fill="none" xmlns="http://www.w3.org/2000/svg">
<path d="M0.273438 8.93997L4.0001 12.6666L4.9401 11.72L1.2201 7.99997M14.8268 3.71997L7.77344 10.78L5.0001 7.99997L4.04677 8.93997L7.77344 12.6666L15.7734 4.66664M12.0001 4.66664L11.0601 3.71997L6.82677 7.9533L7.77344 8.8933L12.0001 4.66664Z" fill="white"/>
</svg>
